{
    "swagger":"2.0",
    "info":{
        "description":"API description",
        "version":"1.0.0",
        "title":"Bingo Kata",
        "contact":{
            "email":"info@polamoros.com"
        },
    },
    "host":"localhost:8080",
    "basePath":"/v1",
    "tags":[
        {
            "name":"game",
            "description":"Game actions include generating a unique random number"
        },
        {
            "name":"card",
            "description":"A card contains a matrix of NxN -1 random values"
        }
    ],
    "paths":{
        "/games/{gameId}/number":{
            "get":{
                "tags":[
                    "game"
                ],
                "description":"Returns a unique random value for the given gameId",
                "produces":[
                    "application/json"
                ],
                "parameters":[
                    {
                        "name":"gameId",
                        "in":"path",
                        "description":"Id of the game",
                        "required":true,
                        "type":"string",
                        "default":"default"
                    }
                ],
                "responses":{
                    "200":{
                        "description":"successful operation",
                        "schema":{
                            "$ref":"#/definitions/getNumberResult"
                        }
                    },
                    "500":{
                        "description":"Error getting the value",
                        "schema":{
                            "$ref":"#/definitions/errorResponse"
                        }
                    }
                },
                "security":[
                    {
                        "api_key":[

                        ]
                    }
                ]
            }
        },
        "/games/{gameId}/cards":{
            "post":{
                "tags":[
                    "card"
                ],
                "description":"Create a card with random values",
                "produces":[
                    "application/json"
                ],
                "parameters":[
                    {
                        "name":"gameId",
                        "in":"path",
                        "description":"Id of the game",
                        "required":true,
                        "type":"string",
                        "default":"default"
                    }
                ],
                "responses":{
                    "200":{
                        "description":"successful operation",
                        "schema":{
                            "$ref":"#/definitions/createCardResult"
                        }
                    },
                    "500":{
                        "description":"Error creating a card",
                        "schema":{
                            "$ref":"#/definitions/errorResponse"
                        }
                    }
                },
                "security":[
                    {
                        "api_key":[

                        ]
                    }
                ]
            }
        },
        "/games/{gameId}/cards/{cardId}":{
            "get":{
                "tags":[
                    "card"
                ],
                "description":"Get a card",
                "produces":[
                    "application/json"
                ],
                "parameters":[
                    {
                        "name":"gameId",
                        "in":"path",
                        "description":"Id of the game",
                        "required":true,
                        "type":"string",
                        "default":"default"
                    },
                    {
                        "name":"cardId",
                        "in":"path",
                        "description":"Id of the card",
                        "required":true,
                        "type":"string"
                    }
                ],
                "responses":{
                    "200":{
                        "description":"successful operation",
                        "schema":{
                            "$ref":"#/definitions/getCardResult"
                        }
                    },
                    "500":{
                        "description":"Error getting a card",
                        "schema":{
                            "$ref":"#/definitions/errorResponse"
                        }
                    }
                },
                "security":[
                    {
                        "api_key":[

                        ]
                    }
                ]
            }
        },
        "/games/{gameId}/cards/{cardId}/check":{
            "get":{
                "tags":[
                    "card"
                ],
                "description":"Check a card",
                "produces":[
                    "application/json"
                ],
                "parameters":[
                    {
                        "name":"gameId",
                        "in":"path",
                        "description":"Id of the game",
                        "required":true,
                        "type":"string",
                        "default":"default"
                    },
                    {
                        "name":"cardId",
                        "in":"path",
                        "description":"Id of the card",
                        "required":true,
                        "type":"string"
                    }
                ],
                "responses":{
                    "200":{
                        "description":"successful operation",
                        "schema":{
                            "$ref":"#/definitions/checkCardResult"
                        }
                    },
                    "500":{
                        "description":"Error checking a card",
                        "schema":{
                            "$ref":"#/definitions/errorResponse"
                        }
                    }
                },
                "security":[
                    {
                        "api_key":[

                        ]
                    }
                ]
            }
        }
    },
    "definitions":{
        "getNumberResult":{
            "type":"object",
            "required":[
                "number",
                "played"
            ],
            "properties":{
                "number":{
                    "type":"integer",
                    "format":"int64"
                },
                "name":{
                    "type":"array"
                }
            }
        },
        "createCardResult":{
            "type":"object",
            "required":[
                "id",
                "values"
            ],
            "properties":{
                "id":{
                    "type":"string"
                },
                "values":{
                    "type":"array"
                }
            }
        },
        "getCardResult":{
            "type":"object",
            "required":[
                "id",
                "values"
            ],
            "properties":{
                "id":{
                    "type":"string"
                },
                "values":{
                    "type":"array"
                }
            }
        },
        "checkCardResult":{
            "type":"object",
            "required":[
                "winner",
                "pending"
            ],
            "properties":{
                "winner":{
                    "type":"boolan"
                },
                "pending":{
                    "type":"array"
                }
            }
        },
        "errorResponse":{
            "type":"object",
            "properties":{
                "status":{
                    "type":"integer",
                    "format":"int32"
                },
                "error":{
                    "type":"string"
                }
            }
        }
    },
    "externalDocs":{
        "description":"Project source",
        "url":"https://gitlab.com/polamoros/bingo-kata"
    }
}
